[gd_scene load_steps=4 format=3 uid="uid://vov15vmk1tfh"]

[ext_resource type="Texture2D" uid="uid://tf7f8xf7q36l" path="res://clipart4510710.png" id="1_mj1vy"]
[ext_resource type="Script" path="res://scences/main_racer.gd" id="1_wh4b1"]

[sub_resource type="RectangleShape2D" id="RectangleShape2D_shfcu"]
size = Vector2(14.5, 6)

[node name="CharacterBody2D" type="CharacterBody2D"]
scale = Vector2(2, 2)
script = ExtResource("1_wh4b1")

[node name="Sprite2D" type="Sprite2D" parent="."]
position = Vector2(231.5, 282.5)
scale = Vector2(0.0254166, 0.0285086)
texture = ExtResource("1_mj1vy")

[node name="CollisionShape2D" type="CollisionShape2D" parent="."]
position = Vector2(231.25, 282.5)
shape = SubResource("RectangleShape2D_shfcu")
